…
```r
gap_gdp <- read_csv("gapminder_gdp.csv")
```

And now we can take a look at our data frame


```r
gap_gdp
```

```
## # A tibble: 270 x 53
##    `GDP (constant 2~    `1960`   `1961`  `1962`   `1963`   `1964`   `1965`
##    <chr>                 <dbl>    <dbl>   <dbl>    <dbl>    <dbl>    <dbl>
##  1 Abkhazia           NA       NA       NA      NA       NA       NA      
##  2 Afghanistan        NA       NA       NA      NA       NA       NA      
##  3 Akrotiri and Dhe~  NA       NA       NA      NA       NA       NA      
##  4 Albania            NA       NA       NA      NA       NA       NA      
##  5 Algeria             1.38e10  1.19e10  9.60e9  1.29e10  1.36e10  1.45e10
##  6 American Samoa     NA       NA       NA      NA       NA       NA      
##  7 Andorra            NA       NA       NA      NA       NA       NA      
##  8 Angola             NA       NA       NA      NA       NA       NA      
##  9 Anguilla           NA       NA       NA      NA       NA       NA      
## 10 Antigua and Barb~  NA       NA       NA      NA       NA       NA      
## # ... with 260 more rows, and 46 more variables: `1966` <dbl>,
## #   `1967` <dbl>, `1968` <dbl>, `1969` <dbl>, `1970` <dbl>, `1971` <dbl>,
## #   `1972` <dbl>, `1973` <dbl>, `1974` <dbl>, `1975` <dbl>, `1976` <dbl>,
## #   `1977` <dbl>, `1978` <dbl>, `1979` <dbl>, `1980` <dbl>, `1981` <dbl>,
## #   `1982` <dbl>, `1983` <dbl>, `1984` <dbl>, `1985` <dbl>, `1986` <dbl>,
## #   `1987` <dbl>, `1988` <dbl>, `1989` <dbl>, `1990` <dbl>, `1991` <dbl>,
## #   `1992` <dbl>, `1993` <dbl>, `1994` <dbl>, `1995` <dbl>, `1996` <dbl>,
## #   `1997` <dbl>, `1998` <dbl>, `1999` <dbl>, `2000` <dbl>, `2001` <dbl>,
## #   `2002` <dbl>, `2003` <dbl>, `2004` <dbl>, `2005` <dbl>, `2006` <dbl>,
…
